[
    {
        "getData": {
            "source": "ExecCtrl",
            "element": "EntityGroups",
            "children": [
                {
                    "getData": {
                        "source": "ExecCtrl",
                        "element": "Scenarios",
                        "params": [
                            {
                                "paramName": "EntityGroup",
                                "paramValue": "%Parent0%"
                            }
                        ]
                    }
                }
            ],
            "selection": [
                0
            ]
        }
    },
    {
        "setData": {
            "source": "ExecCtrl",
            "element": "Start",
            "content": "1",
            "tp": 1
        }
    }
]